{ "ObjectRepo"	: 
[
	{
		"ObjectID": "1",
		"FieldName": "Menu",
		"LocatorName": "css",
		"LocatorValue": "#mega-menu-wrap-main",
		"Comments": ""
	},
	{
		"ObjectID": "2",
		"FieldName": "SearchTextBox",
		"LocatorName": "css",
		"LocatorValue": "input[name='s']",
		"Comments": ""
	},
	{
		"ObjectID": "3",
		"FieldName": "SearchButton",
		"LocatorName": "css",
		"LocatorValue": "button[type='submit']",
		"Comments": ""
	},
	{
		"ObjectID": "4",
		"FieldName": "SearchResultLink",
		"LocatorName": "xpath",
		"LocatorValue": "//a[text()='Solutions for Data Managers']",
		"Comments": ""
	},
	{
		"ObjectID": "5",
		"FieldName": "SearchResult",
		"LocatorName": "css",
		"LocatorValue": ".entry-title a",
		"Comments": ""
	},
	{
		"ObjectID": "6",
		"FieldName": "HomeMenu",
		"LocatorName": "xpath",
		"LocatorValue": "//a[@class='mega-menu-link' and text()='Accueil']",
		"Comments": ""
	},
	{
		"ObjectID": "7",
		"FieldName": "OrangeHRMLogInUserName",
		"LocatorName": "css",
		"LocatorValue": "#txtUsername",
		"Comments": ""
	},
	{
		"ObjectID": "8",
		"FieldName": "OrangeHRMLogInPassword",
		"LocatorName": "css",
		"LocatorValue": "#txtPassword",
		"Comments": ""
	},
	{
		"ObjectID": "9",
		"FieldName": "OrangeHRMLogInSubmit",
		"LocatorName": "css",
		"LocatorValue": "#btnLogin",
		"Comments": ""
	},
	{
		"ObjectID": "10",
		"FieldName": "OrangeHRMAdminMenu",
		"LocatorName": "css",
		"LocatorValue": "#menu_admin_viewAdminModule",
		"Comments": ""
	},
	{
		"ObjectID": "11",
		"FieldName": "OrangeHRMJobMenu",
		"LocatorName": "css",
		"LocatorValue": "#menu_admin_Job",
		"Comments": ""
	},
	{
		"ObjectID": "12",
		"FieldName": "OrangeHRMJobTitles",
		"LocatorName": "css",
		"LocatorValue": "#menu_admin_viewJobTitleList",
		"Comments": ""
	},
	{
		"ObjectID": "13",
		"FieldName": "OrangeHRMJobTitlesAddBtn",
		"LocatorName": "css",
		"LocatorValue": "#btnAdd",
		"Comments": ""
	},
	{
		"ObjectID": "14",
		"FieldName": "OrangeHRMJobTitleInputTxtBox",
		"LocatorName": "css",
		"LocatorValue": "#jobTitle_jobTitle",
		"Comments": ""
	},
	{
		"ObjectID": "15",
		"FieldName": "OrangeHRMJobDescriptionTxtArea",
		"LocatorName": "css",
		"LocatorValue": "#jobTitle_jobDescription",
		"Comments": ""
	},
	{
		"ObjectID": "16",
		"FieldName": "OrangeHRMJobNotesTxtArea",
		"LocatorName": "css",
		"LocatorValue": "#jobTitle_note",
		"Comments": ""
	},
	{
		"ObjectID": "17",
		"FieldName": "OrangeHRMJobTitleSaveBtn",
		"LocatorName": "css",
		"LocatorValue": "#btnSave",
		"Comments": ""
	},
	{
		"ObjectID": "18",
		"FieldName": "OrangeHRMJobTitleCheckBox",
		"LocatorName": "xpath",
		"LocatorValue": "//a[.='REPLACE']/parent::td/preceding-sibling::td",
		"Comments": ""
	},
	{
		"ObjectID": "19",
		"FieldName": "OrangeHRMJobTitlesDelBtn",
		"LocatorName": "css",
		"LocatorValue": "#btnDelete",
		"Comments": ""
	},
	{
		"ObjectID": "20",
		"FieldName": "OrangeHRMJobTitlesDialogueDelBtn",
		"LocatorName": "css",
		"LocatorValue": "#dialogDeleteBtn",
		"Comments": ""
	},
	{
		"ObjectID": "21",
		"FieldName": "OrangeHRMWelcome",
		"LocatorName": "css",
		"LocatorValue": "#welcome",
		"Comments": ""
	},
	{
		"ObjectID": "22",
		"FieldName": "OrangeLogOut",
		"LocatorName": "css",
		"LocatorValue": "a[href*='logout']",
		"Comments": ""
	},
	{
		"ObjectID": "23",
		"FieldName": "OrangePIMMenu",
		"LocatorName": "css",
		"LocatorValue": "#menu_pim_viewPimModule",
		"Comments": ""
	},
	{
		"ObjectID": "24",
		"FieldName": "OrangeAddEmployee",
		"LocatorName": "css",
		"LocatorValue": "#menu_pim_addEmployee",
		"Comments": ""
	},
	{
		"ObjectID": "25",
		"FieldName": "OrangeAddEmployeeFirstName",
		"LocatorName": "css",
		"LocatorValue": "#firstName",
		"Comments": ""
	},
	{
		"ObjectID": "26",
		"FieldName": "OrangeAddEmployeeLastName",
		"LocatorName": "css",
		"LocatorValue": "#lastName",
		"Comments": ""
	},
	{
		"ObjectID": "27",
		"FieldName": "OrangeAddEmployeeSaveBtn",
		"LocatorName": "css",
		"LocatorValue": "#btnSave",
		"Comments": ""
	},
	{
		"ObjectID": "28",
		"FieldName": "OrangeAddEmployeeEditBtn",
		"LocatorName": "css",
		"LocatorValue": "[value='Edit']",
		"Comments": ""
	},
	{
		"ObjectID": "29",
		"FieldName": "OrangeAddEmployeeDOB",
		"LocatorName": "css",
		"LocatorValue": "#personal_DOB",
		"Comments": ""
	},
	{
		"ObjectID": "30",
		"FieldName": "OrangeAddEmployeeSuccessMsg",
		"LocatorName": "css",
		"LocatorValue": "[class*='message success']",
		"Comments": ""
	}
]
}